#define catinv_width 128
#define catinv_height 64
static unsigned char catinv_bits[] = {
   0x00, 0x00, 0x00, 0x00, 0x00, 0x00, 0x50, 0x7f, 0x03, 0x00, 0x00, 0x00,
   0x00, 0x00, 0x00, 0x00, 0x00, 0x00, 0x00, 0x00, 0x00, 0x00, 0x50, 0xfc,
   0x0e, 0x00, 0x00, 0x00, 0x00, 0x00, 0x00, 0x00, 0x00, 0x00, 0x00, 0x00,
   0x00, 0x00, 0x50, 0xff, 0x1a, 0x00, 0x00, 0x00, 0x00, 0x00, 0x00, 0x00,
   0x00, 0x00, 0x00, 0x00, 0x00, 0x00, 0xa0, 0xfe, 0x37, 0x00, 0x00, 0x00,
   0x00, 0x00, 0x00, 0x00, 0x00, 0x00, 0x00, 0x00, 0x00, 0x00, 0xd0, 0xfd,
   0x6b, 0x00, 0x00, 0x00, 0x00, 0x00, 0x00, 0x00, 0x00, 0x00, 0x00, 0x00,
   0x00, 0x00, 0xa0, 0xff, 0xdf, 0x00, 0x00, 0x00, 0x00, 0x00, 0xc0, 0x0f,
   0x00, 0x00, 0x00, 0x00, 0x00, 0x00, 0xa0, 0xff, 0xef, 0x07, 0x00, 0x00,
   0x00, 0x00, 0xf8, 0x1f, 0x00, 0x00, 0x00, 0x00, 0x00, 0x00, 0xa0, 0xff,
   0x1f, 0x7f, 0x0a, 0x00, 0x00, 0x00, 0xbc, 0x34, 0x00, 0x00, 0x00, 0x00,
   0x00, 0x00, 0x60, 0xff, 0x7b, 0x6b, 0x15, 0x00, 0x00, 0x80, 0xf7, 0x1b,
   0x00, 0x00, 0x00, 0x00, 0x00, 0x00, 0x40, 0xfd, 0xbf, 0xee, 0x4c, 0x50,
   0x00, 0xc0, 0xff, 0x37, 0x00, 0x00, 0x00, 0x00, 0x00, 0x00, 0xc0, 0xfb,
   0xaf, 0xf6, 0x56, 0x3b, 0x02, 0xb8, 0xff, 0x1a, 0x00, 0x00, 0x00, 0x00,
   0x00, 0x00, 0xc0, 0x7f, 0xbd, 0xff, 0x14, 0x6a, 0xfe, 0xfc, 0xdf, 0x12,
   0x00, 0x00, 0x00, 0x00, 0x00, 0x00, 0x00, 0xbf, 0xfe, 0x2f, 0xee, 0x9a,
   0xfa, 0xf7, 0xbf, 0x0c, 0x00, 0x00, 0x00, 0x00, 0x00, 0x00, 0x40, 0xeb,
   0xff, 0x7f, 0x8c, 0xdd, 0xeb, 0xfd, 0xff, 0x09, 0x00, 0x00, 0x00, 0x00,
   0x00, 0x00, 0xc0, 0xf5, 0xff, 0x3d, 0x0e, 0xcc, 0x7f, 0xfd, 0xbf, 0x0a,
   0x00, 0x00, 0x00, 0x00, 0x00, 0x00, 0x80, 0xe7, 0xff, 0xff, 0x1e, 0x8d,
   0x7f, 0xdd, 0xff, 0x05, 0x00, 0x00, 0x00, 0x00, 0x00, 0x00, 0xc0, 0xfb,
   0xff, 0x3b, 0x57, 0x87, 0x5f, 0xff, 0x7f, 0x05, 0x00, 0x00, 0x00, 0x00,
   0x00, 0x00, 0x80, 0xf7, 0xff, 0x7f, 0x96, 0x47, 0x7f, 0xfd, 0xf7, 0x02,
   0x00, 0x00, 0x00, 0x00, 0x00, 0x00, 0x00, 0xfb, 0xff, 0xbf, 0x46, 0xd3,
   0xfd, 0xf7, 0x2f, 0x01, 0x00, 0x00, 0x00, 0x00, 0x00, 0x00, 0x00, 0xfb,
   0xff, 0xff, 0x26, 0xe7, 0xf7, 0xd7, 0x6d, 0x01, 0x00, 0x00, 0x00, 0x00,
   0x00, 0x00, 0x00, 0xff, 0xff, 0xff, 0xad, 0xf9, 0x5b, 0xaf, 0xaa, 0x00,
   0x00, 0x00, 0x00, 0x00, 0x00, 0x00, 0x00, 0xff, 0xff, 0xff, 0xad, 0xfd,
   0xf7, 0xbe, 0x5b, 0x00, 0x00, 0x00, 0x00, 0x00, 0x00, 0x00, 0xc0, 0xff,
   0xbf, 0xff, 0x6a, 0xfe, 0xff, 0x7f, 0x4a, 0x00, 0x00, 0x00, 0x00, 0x00,
   0x00, 0x00, 0xc0, 0xff, 0xff, 0xf7, 0x45, 0xef, 0xff, 0xfd, 0x14, 0x00,
   0x00, 0x00, 0x00, 0x00, 0x00, 0x00, 0xf0, 0xff, 0xff, 0xff, 0x50, 0xff,
   0xfd, 0x7b, 0x55, 0x00, 0x00, 0x00, 0x00, 0x00, 0x00, 0x00, 0xf0, 0xff,
   0xff, 0xff, 0x15, 0xff, 0xf5, 0x7f, 0x1d, 0x00, 0x00, 0x00, 0x00, 0x00,
   0x00, 0x00, 0xf8, 0xd6, 0x80, 0xff, 0xaa, 0xff, 0xfe, 0xff, 0x2d, 0x00,
   0x00, 0x00, 0x00, 0x00, 0x00, 0x00, 0xf8, 0x86, 0x11, 0xfe, 0xab, 0xff,
   0xff, 0x7f, 0x0d, 0x00, 0x00, 0x00, 0x00, 0x00, 0x00, 0x00, 0xbc, 0xe1,
   0x4d, 0xfc, 0xbf, 0xff, 0xff, 0xff, 0x17, 0x00, 0x00, 0x00, 0x00, 0x00,
   0x00, 0x00, 0x7c, 0xe9, 0x4d, 0xf9, 0xaf, 0xff, 0xff, 0x7f, 0x03, 0x00,
   0x00, 0x00, 0x00, 0x00, 0x00, 0x00, 0x7c, 0xf8, 0x0d, 0xfb, 0xbf, 0x1f,
   0xf8, 0xff, 0x01, 0x00, 0x00, 0x00, 0x00, 0x00, 0x00, 0x00, 0x5c, 0xf2,
   0x1d, 0xf3, 0xbf, 0x0f, 0xe0, 0xff, 0x03, 0x00, 0x00, 0x00, 0x00, 0x00,
   0x00, 0x00, 0x96, 0xff, 0xcb, 0xfd, 0xff, 0xf3, 0xe2, 0xff, 0x01, 0x00,
   0x00, 0x00, 0x00, 0x00, 0x00, 0x00, 0xac, 0xd6, 0xfb, 0xf1, 0xff, 0x33,
   0xce, 0xbf, 0x07, 0x00, 0x00, 0x00, 0x00, 0x00, 0x00, 0x00, 0xe2, 0x7f,
   0x8f, 0xf8, 0xff, 0x1d, 0x75, 0xf8, 0x03, 0x00, 0x00, 0x00, 0x00, 0x00,
   0x00, 0x00, 0xea, 0xfd, 0xff, 0xf3, 0xff, 0x39, 0xee, 0x50, 0x0f, 0x00,
   0x00, 0x00, 0x00, 0x00, 0x00, 0x00, 0x72, 0xf9, 0xfe, 0xff, 0xff, 0xb8,
   0xf7, 0xd9, 0x07, 0x00, 0x00, 0x00, 0x00, 0x00, 0x00, 0x00, 0x66, 0xf3,
   0xed, 0xfb, 0xff, 0xe0, 0xfb, 0xa1, 0x0e, 0x00, 0x00, 0x00, 0x00, 0x00,
   0x00, 0x00, 0xfd, 0xce, 0xfb, 0xff, 0x7f, 0x1f, 0xfe, 0x51, 0x07, 0x00,
   0xa8, 0x25, 0x00, 0x00, 0x00, 0x00, 0xea, 0x5e, 0xfe, 0xff, 0x7f, 0xff,
   0xff, 0x83, 0x0e, 0x00, 0xa4, 0xa8, 0x02, 0x00, 0x50, 0x01, 0x76, 0xb5,
   0xfd, 0x5f, 0xf7, 0xfe, 0xab, 0x82, 0x0a, 0x00, 0x00, 0x00, 0x05, 0x00,
   0x50, 0x01, 0xae, 0x00, 0xfc, 0x1f, 0xe4, 0x7f, 0xff, 0x57, 0x0b, 0x00,
   0x00, 0x80, 0x02, 0x00, 0x5a, 0x50, 0x16, 0x57, 0xff, 0x8f, 0xf2, 0xdf,
   0xea, 0x28, 0x09, 0x00, 0x00, 0x00, 0x06, 0x00, 0x0a, 0x50, 0xdc, 0x94,
   0xfe, 0x3f, 0xe1, 0x5f, 0x77, 0x71, 0x08, 0x00, 0x02, 0x00, 0x03, 0x00,
   0x05, 0x14, 0xae, 0xbd, 0xff, 0x3f, 0xfc, 0x7f, 0xad, 0xaa, 0x04, 0x00,
   0x1f, 0x00, 0x0e, 0x00, 0x05, 0x14, 0x5c, 0x75, 0xff, 0x7f, 0xfc, 0xff,
   0xd5, 0xf7, 0x08, 0x00, 0x2f, 0x00, 0x21, 0x40, 0x01, 0x05, 0xbc, 0xba,
   0xff, 0x3f, 0xff, 0x7f, 0x69, 0x79, 0x00, 0x00, 0x2f, 0x10, 0x6b, 0x40,
   0x01, 0x06, 0x78, 0xef, 0xff, 0x7f, 0xfe, 0xff, 0x02, 0xf0, 0x02, 0x00,
   0x17, 0x80, 0x14, 0x40, 0xa0, 0x01, 0x78, 0xb5, 0xfe, 0x2f, 0xff, 0x7f,
   0x85, 0xba, 0x00, 0x00, 0x17, 0x80, 0x72, 0x40, 0x40, 0x07, 0xf4, 0xfd,
   0xff, 0x5f, 0xfc, 0x7f, 0x01, 0xa2, 0x02, 0x00, 0x15, 0x80, 0x5a, 0x10,
   0xe9, 0x02, 0xe5, 0xf3, 0xe8, 0x0b, 0xfb, 0xff, 0x7e, 0x05, 0x02, 0x00,
   0x15, 0x00, 0xf9, 0x30, 0x89, 0x85, 0xca, 0x7f, 0x97, 0x72, 0xfa, 0xef,
   0xff, 0x5f, 0x0a, 0x00, 0x05, 0x80, 0x34, 0x94, 0x52, 0x33, 0xb7, 0x5f,
   0x55, 0xfe, 0xf5, 0xdf, 0xff, 0xab, 0x00, 0x00, 0x29, 0x00, 0x69, 0x14,
   0x55, 0x23, 0x8e, 0xfe, 0x49, 0xfd, 0x87, 0xab, 0xff, 0xaf, 0x00, 0x00,
   0x04, 0x80, 0x1c, 0x08, 0xf0, 0xa4, 0x37, 0xff, 0x92, 0xf6, 0xbf, 0xd4,
   0xeb, 0xa3, 0x00, 0x00, 0x01, 0x80, 0x3a, 0x08, 0xe8, 0x25, 0xab, 0xf8,
   0x85, 0xaa, 0xbf, 0xd2, 0xfe, 0xab, 0x00, 0x00, 0x02, 0x00, 0x0f, 0x02,
   0xb4, 0xd4, 0xae, 0xf2, 0x03, 0x50, 0xa8, 0xaa, 0x7f, 0x54, 0x00, 0x00,
   0x00, 0x00, 0x1c, 0x06, 0xac, 0x94, 0x56, 0x82, 0x0f, 0x40, 0x55, 0x55,
   0xd2, 0x3a, 0x00, 0x00, 0x00, 0x80, 0x0b, 0x01, 0x35, 0x6a, 0x8b, 0x0a,
   0x75, 0x00, 0x00, 0x8a, 0xfd, 0x0f, 0x00, 0x00, 0x00, 0x00, 0x05, 0x86,
   0x2a, 0x54, 0x9f, 0x7c, 0x80, 0x00, 0x10, 0x28, 0xff, 0x1f, 0x00, 0x00,
   0x00, 0x80, 0x01, 0x01, 0x15, 0x55, 0x4e, 0xb2, 0xa1, 0x02, 0x55, 0x57,
   0xff, 0x02, 0x00, 0x00, 0x00, 0x00, 0x03, 0x00, 0x0b, 0x5d, 0x3c, 0xe2,
   0x86, 0xbe, 0xaa, 0x7e, 0xbf, 0x0a, 0x00, 0x00, 0x00, 0x80, 0x00, 0xc1,
   0x42, 0x6a, 0x35, 0xd0, 0x15, 0xe8, 0xff, 0xfa, 0x2f, 0x10, 0x00, 0x00,
   0x00, 0x00, 0x41, 0x80, 0xc5, 0x6a, 0xf5, 0x00, 0x0f, 0xe8, 0xff, 0x07,
   0x89, 0x20, 0x00, 0x00 };
