#define cat_white_border_width 128
#define cat_white_border_height 64
static unsigned char cat_white_border_bits[] = {
   0x00, 0x00, 0x00, 0x00, 0x00, 0x00, 0x00, 0x00, 0x00, 0x00, 0x00, 0x00,
   0x00, 0x00, 0x00, 0x00, 0x00, 0x00, 0x00, 0x00, 0x00, 0x00, 0x00, 0x00,
   0x00, 0x00, 0x00, 0x00, 0x00, 0x00, 0x00, 0x00, 0xfc, 0xff, 0xff, 0xff,
   0xff, 0xff, 0xaf, 0x00, 0xe5, 0xff, 0xff, 0xff, 0xff, 0xff, 0xff, 0x3f,
   0xfc, 0xff, 0xff, 0xff, 0xff, 0xff, 0x5f, 0x01, 0xc8, 0xff, 0xff, 0xff,
   0xff, 0xff, 0xff, 0x3f, 0xfc, 0xff, 0xff, 0xff, 0xff, 0xff, 0x2f, 0x02,
   0x94, 0xff, 0xff, 0xff, 0xff, 0xff, 0xff, 0x3f, 0xfc, 0xff, 0xff, 0xff,
   0xff, 0xff, 0x5f, 0x00, 0x20, 0xff, 0xff, 0xff, 0xff, 0xff, 0x3f, 0x30,
   0xfc, 0xff, 0xff, 0xff, 0xff, 0xff, 0x5f, 0x00, 0x10, 0xf8, 0xff, 0xff,
   0xff, 0xff, 0x07, 0x20, 0xfc, 0xff, 0xff, 0xff, 0xff, 0xff, 0x5f, 0x00,
   0xe0, 0x80, 0xf5, 0xff, 0xff, 0xff, 0x43, 0x0b, 0xfc, 0xff, 0xff, 0xff,
   0xff, 0xff, 0x9f, 0x00, 0x84, 0x94, 0xea, 0xff, 0xff, 0x7f, 0x08, 0x24,
   0xfc, 0xff, 0xff, 0xff, 0xff, 0xff, 0xbf, 0x02, 0x40, 0x11, 0xb3, 0xaf,
   0xff, 0x3f, 0x00, 0x08, 0xfc, 0xff, 0xff, 0xff, 0xff, 0xff, 0x3f, 0x04,
   0x50, 0x09, 0xa9, 0xc4, 0xfd, 0x47, 0x00, 0x25, 0xfc, 0xff, 0xff, 0xff,
   0xff, 0xff, 0x3f, 0x80, 0x42, 0x00, 0xeb, 0x95, 0x01, 0x03, 0x20, 0x2d,
   0xfc, 0xff, 0xff, 0xff, 0xff, 0xff, 0xff, 0x40, 0x01, 0xd0, 0x11, 0x65,
   0x05, 0x08, 0x40, 0x33, 0xfc, 0xff, 0xff, 0xff, 0xff, 0xff, 0xbf, 0x14,
   0x00, 0x80, 0x73, 0x22, 0x14, 0x02, 0x00, 0x36, 0xfc, 0xff, 0xff, 0xff,
   0xff, 0xff, 0x3f, 0x0a, 0x00, 0xc2, 0xf1, 0x33, 0x80, 0x02, 0x40, 0x35,
   0xfc, 0xff, 0xff, 0xff, 0xff, 0xff, 0x7f, 0x18, 0x00, 0x00, 0xe1, 0x72,
   0x80, 0x22, 0x00, 0x3a, 0xfc, 0xff, 0xff, 0xff, 0xff, 0xff, 0x3f, 0x04,
   0x00, 0xc4, 0xa8, 0x78, 0xa0, 0x00, 0x80, 0x3a, 0xfc, 0xff, 0xff, 0xff,
   0xff, 0xff, 0x7f, 0x08, 0x00, 0x80, 0x69, 0xb8, 0x80, 0x02, 0x08, 0x3d,
   0xfc, 0xff, 0xff, 0xff, 0xff, 0xff, 0xff, 0x04, 0x00, 0x40, 0xb9, 0x2c,
   0x02, 0x08, 0xd0, 0x3e, 0xfc, 0xff, 0xff, 0xff, 0xff, 0xff, 0xff, 0x04,
   0x00, 0x00, 0xd9, 0x18, 0x08, 0x28, 0x92, 0x3e, 0xfc, 0xff, 0xff, 0xff,
   0xff, 0xff, 0xff, 0x00, 0x00, 0x00, 0x52, 0x06, 0xa4, 0x50, 0x55, 0x3f,
   0xfc, 0xff, 0xff, 0xff, 0xff, 0xff, 0xff, 0x00, 0x00, 0x00, 0x52, 0x02,
   0x08, 0x41, 0xa4, 0x3f, 0xfc, 0xff, 0xff, 0xff, 0xff, 0xff, 0x3f, 0x00,
   0x40, 0x00, 0x95, 0x01, 0x00, 0x80, 0xb5, 0x3f, 0xfc, 0xff, 0xff, 0xff,
   0xff, 0xff, 0x3f, 0x00, 0x00, 0x08, 0xba, 0x10, 0x00, 0x02, 0xeb, 0x3f,
   0xfc, 0xff, 0xff, 0xff, 0xff, 0xff, 0x0f, 0x00, 0x00, 0x00, 0xaf, 0x00,
   0x02, 0x84, 0xaa, 0x3f, 0xfc, 0xff, 0xff, 0xff, 0xff, 0xff, 0x0f, 0x00,
   0x00, 0x00, 0xea, 0x00, 0x0a, 0x80, 0xe2, 0x3f, 0xfc, 0xff, 0xff, 0xff,
   0xff, 0xff, 0x07, 0x29, 0x7f, 0x00, 0x55, 0x00, 0x01, 0x00, 0xd2, 0x3f,
   0xfc, 0xff, 0xff, 0xff, 0xff, 0xff, 0x07, 0x79, 0xee, 0x01, 0x54, 0x00,
   0x00, 0x80, 0xf2, 0x3f, 0xfc, 0xff, 0xff, 0xff, 0xff, 0xff, 0x43, 0x1e,
   0xb2, 0x03, 0x40, 0x00, 0x00, 0x00, 0xe8, 0x3f, 0xfc, 0xff, 0xff, 0xff,
   0xff, 0xff, 0x83, 0x16, 0xb2, 0x06, 0x50, 0x00, 0x00, 0x80, 0xfc, 0x3f,
   0xfc, 0xff, 0xff, 0xff, 0xff, 0xff, 0x83, 0x07, 0xf2, 0x04, 0x40, 0xe0,
   0x07, 0x00, 0xfe, 0x3f, 0xfc, 0xff, 0xff, 0xff, 0xff, 0xff, 0xa3, 0x0d,
   0xe2, 0x0c, 0x40, 0xf0, 0x1f, 0x00, 0xfc, 0x3f, 0xfc, 0xff, 0xff, 0xff,
   0xff, 0xff, 0x69, 0x00, 0x34, 0x02, 0x00, 0x0c, 0x1d, 0x00, 0xfe, 0x3f,
   0xfc, 0xff, 0xff, 0xff, 0xff, 0xff, 0x53, 0x29, 0x04, 0x0e, 0x00, 0xcc,
   0x31, 0x40, 0xf8, 0x3f, 0xfc, 0xff, 0xff, 0xff, 0xff, 0xff, 0x1d, 0x80,
   0x70, 0x07, 0x00, 0xe2, 0x8a, 0x07, 0xfc, 0x3f, 0xfc, 0xff, 0xff, 0xff,
   0xff, 0xff, 0x15, 0x02, 0x00, 0x0c, 0x00, 0xc6, 0x11, 0xaf, 0xf0, 0x3f,
   0xfc, 0xff, 0xff, 0xff, 0xff, 0xff, 0x8d, 0x06, 0x01, 0x00, 0x00, 0x47,
   0x08, 0x26, 0xf8, 0x3f, 0xfc, 0xff, 0xff, 0xff, 0xff, 0xff, 0x99, 0x0c,
   0x12, 0x04, 0x00, 0x1f, 0x04, 0x5e, 0xf1, 0x3f, 0xfc, 0xff, 0xff, 0xff,
   0xff, 0xff, 0x02, 0x31, 0x04, 0x00, 0x80, 0xe0, 0x01, 0xae, 0xf8, 0x3f,
   0x54, 0xda, 0xff, 0xff, 0xff, 0xff, 0x15, 0xa1, 0x01, 0x00, 0x80, 0x00,
   0x00, 0x7c, 0xf1, 0x3f, 0x58, 0x57, 0xfd, 0xff, 0xaf, 0xfe, 0x89, 0x4a,
   0x02, 0xa0, 0x08, 0x01, 0x54, 0x7d, 0xf5, 0x3f, 0xfc, 0xff, 0xfa, 0xff,
   0xaf, 0xfe, 0x51, 0xff, 0x03, 0xe0, 0x1b, 0x80, 0x00, 0xa8, 0xf4, 0x3f,
   0xfc, 0x7f, 0xfd, 0xff, 0xa5, 0xaf, 0xe9, 0xa8, 0x00, 0x70, 0x0d, 0x20,
   0x15, 0xd7, 0xf6, 0x3f, 0xfc, 0xff, 0xf9, 0xff, 0xf5, 0xaf, 0x23, 0x6b,
   0x01, 0xc0, 0x1e, 0xa0, 0x88, 0x8e, 0xf7, 0x3f, 0xfc, 0xff, 0xfc, 0xff,
   0xfa, 0xeb, 0x51, 0x42, 0x00, 0xc0, 0x03, 0x80, 0x52, 0x55, 0xfb, 0x3f,
   0xe0, 0xff, 0xf1, 0xff, 0xfa, 0xeb, 0xa3, 0x8a, 0x00, 0x80, 0x03, 0x00,
   0x2a, 0x08, 0xf7, 0x3f, 0xd0, 0xff, 0xde, 0xbf, 0xfe, 0xfa, 0x43, 0x45,
   0x00, 0xc0, 0x00, 0x80, 0x96, 0x86, 0xff, 0x3f, 0xd0, 0xef, 0x94, 0xbf,
   0xfe, 0xf9, 0x87, 0x10, 0x00, 0x80, 0x01, 0x00, 0xfd, 0x0f, 0xfd, 0x3f,
   0xe8, 0x7f, 0xeb, 0xbf, 0x5f, 0xfe, 0x87, 0x4a, 0x01, 0xd0, 0x00, 0x80,
   0x7a, 0x45, 0xff, 0x3f, 0xe8, 0x7f, 0x8d, 0xbf, 0xbf, 0xf8, 0x0b, 0x02,
   0x00, 0xa0, 0x03, 0x80, 0xfe, 0x5d, 0xfd, 0x3f, 0xe8, 0x7f, 0xa5, 0xef,
   0x16, 0xfd, 0x1a, 0x0c, 0x17, 0xf4, 0x04, 0x00, 0x81, 0xfa, 0xfd, 0x3f,
   0xe8, 0xff, 0x06, 0xcf, 0x76, 0x7a, 0x35, 0x80, 0x68, 0x8d, 0x05, 0x10,
   0x00, 0xa0, 0xf5, 0x3f, 0xf8, 0x7f, 0xcb, 0x6b, 0xad, 0xcc, 0x48, 0xa0,
   0xaa, 0x01, 0x0a, 0x20, 0x00, 0x54, 0xff, 0x3f, 0xd4, 0xff, 0x96, 0xeb,
   0xaa, 0xdc, 0x71, 0x01, 0xb6, 0x02, 0x78, 0x54, 0x00, 0x50, 0xff, 0x3f,
   0xf8, 0x7f, 0xe3, 0xf7, 0x0f, 0x5b, 0xc8, 0x00, 0x6d, 0x09, 0x40, 0x2b,
   0x14, 0x5c, 0xff, 0x3f, 0xfc, 0x7f, 0xc5, 0xf7, 0x17, 0xda, 0x54, 0x07,
   0x7a, 0x55, 0x40, 0x2d, 0x01, 0x54, 0xff, 0x3f, 0xfc, 0xff, 0xf0, 0xfd,
   0x4b, 0x2b, 0x51, 0x0d, 0xfc, 0xaf, 0x57, 0x55, 0x80, 0xab, 0xff, 0x3f,
   0xfc, 0xff, 0xe3, 0xf9, 0x53, 0x6b, 0xa9, 0x7d, 0xf0, 0xbf, 0xaa, 0xaa,
   0x2d, 0xc5, 0xff, 0x3f, 0xfc, 0x7f, 0xf4, 0xfe, 0xca, 0x95, 0x74, 0xf5,
   0x8a, 0xff, 0xff, 0x75, 0x02, 0xf0, 0xff, 0x3f, 0xfc, 0xff, 0xfa, 0x79,
   0xd5, 0xab, 0x60, 0x83, 0x7f, 0xff, 0xef, 0xd7, 0x00, 0xe0, 0xff, 0x3f,
   0xfc, 0x7f, 0xfe, 0xfe, 0xea, 0xaa, 0xb1, 0x4d, 0x5e, 0xfd, 0xaa, 0xa8,
   0x00, 0xfd, 0xff, 0x3f, 0xfc, 0xff, 0xfc, 0xff, 0xf4, 0xa2, 0xc3, 0x1d,
   0x79, 0x41, 0x55, 0x81, 0x40, 0xf5, 0xff, 0x3f, 0x00, 0x00, 0x00, 0x00,
   0x00, 0x00, 0x00, 0x00, 0x00, 0x00, 0x00, 0x00, 0x00, 0x00, 0x00, 0x00,
   0x00, 0x00, 0x00, 0x00, 0x00, 0x00, 0x00, 0x00, 0x00, 0x00, 0x00, 0x00,
   0x00, 0x00, 0x00, 0x00 };
